Lab_02/gcd_fsm.vcd
$date
  Wed Dec 11 23:05:56 2019
$end
$version
  PyMTL 3 (Mamba)
$end
$timescale
 10ps
$end

$scope module top $end
  $var reg 8 ! rb $end
  $var reg 1 " ack $end
  $var reg 3 # cState $end
  $var reg 1 $ en $end
  $var reg 8 % b $end
  $var reg 8 & ra $end
  $var reg 8 ' a $end
  $var reg 1 ( reset $end
  $var reg 3 ) nState $end
  $var reg 8 * out $end
  $var reg 1 + clk $end
$upscope $end
$enddefinitions $end

b0b00000000 !
b0b0 "
b0b000 #
b0b0 $
b0b00000000 %
b0b00000000 &
b0b00000000 '
b0b0 (
b0b000 )
b0b00000000 *
b0b0 +

#0
b0b1 +

b0b00000111 %
b0b00110001 '
b0b1 (

#50
b0b0 +
#100
b0b1 +


#150
b0b0 +
#200
b0b1 +

b0b1 $
b0b0 (
b0b001 )

#250
b0b0 +
#300
b0b1 +

b0b00000111 !
b0b001 #
b0b00110001 &
b0b010 )

#350
b0b0 +
#400
b0b1 +

b0b010 #
b0b100 )

#450
b0b0 +
#500
b0b1 +

b0b100 #
b0b00101010 &
b0b010 )

#550
b0b0 +
#600
b0b1 +

b0b010 #
b0b100 )

#650
b0b0 +
#700
b0b1 +

b0b100 #
b0b00100011 &
b0b010 )

#750
b0b0 +
#800
b0b1 +

b0b010 #
b0b100 )

#850
b0b0 +
#900
b0b1 +

b0b100 #
b0b00011100 &
b0b010 )

#950
b0b0 +
#1000
b0b1 +

b0b010 #
b0b100 )

#1050
b0b0 +
#1100
b0b1 +

b0b100 #
b0b00010101 &
b0b010 )

#1150
b0b0 +
#1200
b0b1 +

b0b010 #
b0b100 )

#1250
b0b0 +
#1300
b0b1 +

b0b100 #
b0b00001110 &
b0b010 )

#1350
b0b0 +
#1400
b0b1 +

b0b010 #
b0b100 )

#1450
b0b0 +
#1500
b0b1 +

b0b100 #
b0b00000111 &
b0b010 )

#1550
b0b0 +
#1600
b0b1 +

b0b010 #
b0b100 )

#1650
b0b0 +
#1700
b0b1 +

b0b100 #
b0b00000000 &
b0b010 )

#1750
b0b0 +
#1800
b0b1 +

b0b010 #
b0b011 )

#1850
b0b0 +
#1900
b0b1 +

b0b00000000 !
b0b011 #
b0b00000111 &
b0b010 )

#1950
b0b0 +
#2000
b0b1 +

b0b010 #
b0b101 )

#2050
b0b0 +
#2100
b0b1 +

b0b1 "
b0b101 #
b0b00000111 *

#2150
b0b0 +
#2200
b0b1 +

